module server

go 1.20

require (
	github.com/grpc-ecosystem/go-grpc-middleware v1.4.0
	google.golang.org/grpc v1.58.2
	google.golang.org/protobuf v1.31.0
	gorm.io/driver/postgres v1.5.2
	gorm.io/gorm v1.25.4
)

require (
	github.com/golang/protobuf v1.5.3 // indirect
	github.com/jackc/pgpassfile v1.0.0 // indirect
	github.com/jackc/pgservicefile v0.0.0-20221227161230-091c0ba34f0a // indirect
	github.com/jackc/pgx/v5 v5.4.3 // indirect
	github.com/jinzhu/inflection v1.0.0 // indirect
	github.com/jinzhu/now v1.1.5 // indirect
	golang.org/x/crypto v0.13.0 // indirect
	golang.org/x/net v0.12.0 // indirect
	golang.org/x/sys v0.12.0 // indirect
	golang.org/x/text v0.13.0 // indirect
	google.golang.org/genproto/googleapis/rpc v0.0.0-20230711160842-782d3b101e98 // indirect
)
